<?xml version="1.0" encoding="utf-8"?>
<!-- Generator: Adobe Illustrator 20.1.0, SVG Export Plug-In . SVG Version: 6.00 Build 0)  -->
<svg version="1.1" id="SvgjsSvg1008" xmlns:svgjs="http://svgjs.com/svgjs"
	 xmlns="http://www.w3.org/2000/svg" xmlns:xlink="http://www.w3.org/1999/xlink" x="0px" y="0px" viewBox="0 0 11.9 8"
	 style="enable-background:new 0 0 11.9 8;" xml:space="preserve">
<title>Shape 30</title>
<desc>Created with Avocode.</desc>
<path id="SvgjsPath1010" d="M6,8C3.3,8,1.1,5.6,0.2,4.6c-0.3-0.4-0.3-0.9,0-1.2C1,2.3,3.3,0,6,0c2.7,0,4.9,2.3,5.7,3.4
	c0.3,0.4,0.3,0.9,0,1.2C10.9,5.6,8.7,8,6,8z M6,1C3.6,1,1.6,3.3,1,4c0.6,0.7,2.6,3,5,3c2.3,0,4.4-2.3,5-3v0C10.3,3.3,8.3,1,6,1z
	 M6,6c-1.1,0-2-0.9-2-2s0.9-2,2-2c0.2,0,0.5,0,0.7,0.1C6.9,2.2,7,2.5,7,2.8C6.9,3,6.6,3.1,6.3,3.1C6.2,3,6.1,3,6,3C5.4,3,5,3.4,5,4
	c0,0.5,0.5,1,1,1c0.6,0,1-0.4,1-1c0-0.3,0.2-0.5,0.5-0.5C7.8,3.5,8,3.7,8,4C8,5.1,7.1,6,6,6z"/>
</svg>
