<?xml version="1.0" encoding="utf-8"?>
<!-- Generator: Adobe Illustrator 20.1.0, SVG Export Plug-In . SVG Version: 6.00 Build 0)  -->
<svg version="1.1" id="Шар_1" xmlns="http://www.w3.org/2000/svg" xmlns:xlink="http://www.w3.org/1999/xlink" x="0px" y="0px"
	 viewBox="0 0 25 20" style="enable-background:new 0 0 25 20;" xml:space="preserve">
<style type="text/css">
	.st0{fill:#BEBEBE;}
</style>
<path id="icon_message_copy" class="st0" d="M12.5,20H2.4C1.1,20,0,19,0,17.7c0-0.1,0-0.1,0-0.2c0-5,0-10.1,0-15.1
	C-0.1,1.3,0.8,0.3,1.9,0c0.1,0,0.3,0,0.4,0c6.8,0,13.6,0,20.3,0C23.9,0,25,1,25,2.3c0,0.1,0,0.1,0,0.2c0,5.1,0,10.1,0,15.2
	c0,1.3-1,2.3-2.2,2.4c0,0,0,0-0.1,0C19.3,20,15.9,20,12.5,20z M21.7,2.4H3.3c0.1,0.1,0.1,0.2,0.2,0.2c1.6,1.7,3.2,3.4,4.8,5
	c1,1,2.1,1.9,3.2,2.7c0.6,0.5,1.4,0.5,2,0c0.8-0.6,1.6-1.2,2.4-1.9c1.4-1.4,2.8-2.8,4.3-4.2C20.7,3.6,21.2,3,21.7,2.4L21.7,2.4z
	 M3.8,17.6h17.4c-1.6-2.2-3.2-4.4-5-6.4c-0.1,0.1-0.2,0.2-0.3,0.3c-0.7,0.4-1.3,0.9-2,1.3c-0.8,0.5-1.8,0.5-2.6,0
	c-0.2-0.1-0.3-0.1-0.5-0.2c-0.6-0.4-1.3-0.8-1.9-1.3C7,13.2,5.4,15.4,3.8,17.6L3.8,17.6z M22.7,4.8c-1.6,1.6-3.2,3.3-4.7,4.8
	c1.6,2,3.1,3.9,4.7,5.9V4.8L22.7,4.8z M7,9.7C5.4,8.1,3.9,6.5,2.3,4.8v10.8C3.9,13.6,5.4,11.7,7,9.7L7,9.7z"/>
</svg>
